[
  {
    "fields": {
      "updated": "2015-05-28T19:40:50Z",
      "created": "2015-05-28T19:40:50Z",
      "title": "Hyperglycemia and the O-GlcNAc transferase in rat aortic smooth muscle cells : elevated expression and altered patterns of O-GlcNAcylation .",
      "source": "group7",
      "authors": "",
      "document_id": 11339805
    },
    "model": "document.document",
    "pk": 1815
  },
  {
    "fields": {
      "updated": "2015-06-23T18:12:30Z",
      "created": "2015-06-23T18:12:30Z",
      "title": "The lectin Helix pomatia agglutinin recognizes O-GlcNAc containing glycoproteins in human breast cancer .",
      "source": "pubmed",
      "authors": "",
      "document_id": 22322011
    },
    "model": "document.document",
    "pk": 1816
  },
  {
    "fields": {
      "updated": "2015-06-23T18:12:42Z",
      "created": "2015-06-23T18:12:42Z",
      "title": "The effect of glycosylation on plasma N-terminal proBNP-76 levels in patients with heart or renal failure .",
      "source": "pubmed",
      "authors": "",
      "document_id": 21719557
    },
    "model": "document.document",
    "pk": 1817
  },
  {
    "fields": {
      "kind": "tmChem",
      "created": "2015-05-28T19:40:50Z",
      "validate_cache": false,
      "updated": "2015-06-19T08:20:50Z",
      "session_id": "",
      "content": "<collection>\n<source>PubTator</source>\n<date>2015/5/29</date>\n<key>PubTator.key</key>\n<document>\n<id>11339805</id>\n<passage>\n<infon key=\"type\">title</infon>\n<offset>0</offset>\n<text>Hyperglycemia and the O-GlcNAc transferase in rat aortic smooth muscle cells : elevated expression and altered patterns of O-GlcNAcylation .</text>\n<annotation>\n<infon key=\"type\">Chemical</infon>\n<location offset='22' length='8' />\n<text>O-GlcNAc</text>\n<infon key=\"MESH\"></infon>\n</annotation>\n<annotation>\n<infon key=\"type\">Chemical</infon>\n<location offset='123' length='1' />\n<text>O</text>\n<infon key=\"MESH\"></infon>\n</annotation>\n</passage>\n<passage>\n<infon key=\"type\">abstract</infon>\n<offset>141</offset>\n<text>Hyperglycemia leads to vascular disease specific to diabetes mellitus . This pathology , which results from abnormal proliferation of smooth muscle cells in arterial walls , may lead to cataract , renal failure , and atherosclerosis . The hexosamine biosynthetic pathway is exquisitely responsive to glucose concentration and plays an important role in glucose-induced insulin resistance . UDP-GlcNAc : polypeptide O-N-acetylglucosaminyltransferase ( O-GlcNAc transferase ; OGTase ) catalyzes the O-linked attachment of single GlcNAc moieties to serine and threonine residues on many cytosolic or nuclear proteins . Polyclonal antibody against OGTase was used to examine the expression of OGTase in rat aorta and aortic smooth muscle ( RASM ) cells . OGTase enzymatic activity and expression at the mRNA and protein levels were determined in RASM cells cultured at normal ( 5 mM ) and at high ( 20 mM ) glucose concentrations . OGTase mRNA and protein are expressed in both endothelial cells and smooth muscle cells in the aorta of normal rats . In both cell types , the nucleus is intensely stained , while the cytoplasm stains diffusely . Immunoelectron microscopy shows that OGTase is localized to euchromatin and around the myofilaments of smooth muscle cells . In RASM cells grown in 5 mM glucose , OGTase is also located mainly in the nucleus . Hyperglycemic RASM cells also display a relative increase in OGTase 's p78 subunit and an overall increase protein and activity for OGTase . Biochemical analyses show that hyperglycemia qualitatively and quantitatively alters the glycosylation or expression of many O-GlcNAc-modified proteins in the nucleus . These results suggest that the abnormal O-GlcNAc modification of intracellular proteins may be involved in glucose toxicity to vascular tissues .</text>\n<annotation>\n<infon key=\"type\">Chemical</infon>\n<location offset='380' length='10' />\n<text>hexosamine</text>\n<infon key=\"MESH\">CHEBI:24586</infon>\n</annotation>\n<annotation>\n<infon key=\"type\">Chemical</infon>\n<location offset='441' length='7' />\n<text>glucose</text>\n<infon key=\"MESH\">MESH:D005947</infon>\n</annotation>\n<annotation>\n<infon key=\"type\">Chemical</infon>\n<location offset='494' length='7' />\n<text>glucose</text>\n<infon key=\"MESH\">MESH:D005947</infon>\n</annotation>\n<annotation>\n<infon key=\"type\">Chemical</infon>\n<location offset='531' length='3' />\n<text>UDP</text>\n<infon key=\"MESH\">MESH:D014530</infon>\n</annotation>\n<annotation>\n<infon key=\"type\">Chemical</infon>\n<location offset='535' length='6' />\n<text>GlcNAc</text>\n<infon key=\"MESH\">CHEBI:506227</infon>\n</annotation>\n<annotation>\n<infon key=\"type\">Chemical</infon>\n<location offset='556' length='1' />\n<text>O</text>\n<infon key=\"MESH\"></infon>\n</annotation>\n<annotation>\n<infon key=\"type\">Chemical</infon>\n<location offset='558' length='1' />\n<text>N</text>\n<infon key=\"MESH\"></infon>\n</annotation>\n<annotation>\n<infon key=\"type\">Chemical</infon>\n<location offset='592' length='8' />\n<text>O-GlcNAc</text>\n<infon key=\"MESH\"></infon>\n</annotation>\n<annotation>\n<infon key=\"type\">Chemical</infon>\n<location offset='638' length='1' />\n<text>O</text>\n<infon key=\"MESH\"></infon>\n</annotation>\n<annotation>\n<infon key=\"type\">Chemical</infon>\n<location offset='668' length='6' />\n<text>GlcNAc</text>\n<infon key=\"MESH\">CHEBI:506227</infon>\n</annotation>\n<annotation>\n<infon key=\"type\">Chemical</infon>\n<location offset='687' length='6' />\n<text>serine</text>\n<infon key=\"MESH\">CHEBI:17822</infon>\n</annotation>\n<annotation>\n<infon key=\"type\">Chemical</infon>\n<location offset='698' length='9' />\n<text>threonine</text>\n<infon key=\"MESH\">CHEBI:26986</infon>\n</annotation>\n<annotation>\n<infon key=\"type\">Chemical</infon>\n<location offset='1044' length='7' />\n<text>glucose</text>\n<infon key=\"MESH\">MESH:D005947</infon>\n</annotation>\n<annotation>\n<infon key=\"type\">Chemical</infon>\n<location offset='1435' length='7' />\n<text>glucose</text>\n<infon key=\"MESH\">MESH:D005947</infon>\n</annotation>\n<annotation>\n<infon key=\"type\">Chemical</infon>\n<location offset='1758' length='8' />\n<text>O-GlcNAc</text>\n<infon key=\"MESH\"></infon>\n</annotation>\n<annotation>\n<infon key=\"type\">Chemical</infon>\n<location offset='1842' length='8' />\n<text>O-GlcNAc</text>\n<infon key=\"MESH\"></infon>\n</annotation>\n<annotation>\n<infon key=\"type\">Chemical</infon>\n<location offset='1909' length='7' />\n<text>glucose</text>\n<infon key=\"MESH\">MESH:D005947</infon>\n</annotation>\n</passage>\n</document>\n</collection>\n",
      "request_count": 1,
      "document": 1815
    },
    "model": "document.pubtator",
    "pk": 9748
  },
  {
    "fields": {
      "kind": "DNorm",
      "created": "2015-05-28T19:40:51Z",
      "validate_cache": false,
      "updated": "2015-06-19T08:20:50Z",
      "session_id": "",
      "content": "<collection>\n<source>PubTator</source>\n<date>2015/5/29</date>\n<key>PubTator.key</key>\n<document>\n<id>11339805</id>\n<passage>\n<infon key=\"type\">title</infon>\n<offset>0</offset>\n<text>Hyperglycemia and the O-GlcNAc transferase in rat aortic smooth muscle cells : elevated expression and altered patterns of O-GlcNAcylation .</text>\n<annotation>\n<infon key=\"type\">Disease</infon>\n<location offset='0' length='13' />\n<text>Hyperglycemia</text>\n<infon key=\"MEDIC\">MESH:D006943</infon>\n</annotation>\n</passage>\n<passage>\n<infon key=\"type\">abstract</infon>\n<offset>141</offset>\n<text>Hyperglycemia leads to vascular disease specific to diabetes mellitus . This pathology , which results from abnormal proliferation of smooth muscle cells in arterial walls , may lead to cataract , renal failure , and atherosclerosis . The hexosamine biosynthetic pathway is exquisitely responsive to glucose concentration and plays an important role in glucose-induced insulin resistance . UDP-GlcNAc : polypeptide O-N-acetylglucosaminyltransferase ( O-GlcNAc transferase ; OGTase ) catalyzes the O-linked attachment of single GlcNAc moieties to serine and threonine residues on many cytosolic or nuclear proteins . Polyclonal antibody against OGTase was used to examine the expression of OGTase in rat aorta and aortic smooth muscle ( RASM ) cells . OGTase enzymatic activity and expression at the mRNA and protein levels were determined in RASM cells cultured at normal ( 5 mM ) and at high ( 20 mM ) glucose concentrations . OGTase mRNA and protein are expressed in both endothelial cells and smooth muscle cells in the aorta of normal rats . In both cell types , the nucleus is intensely stained , while the cytoplasm stains diffusely . Immunoelectron microscopy shows that OGTase is localized to euchromatin and around the myofilaments of smooth muscle cells . In RASM cells grown in 5 mM glucose , OGTase is also located mainly in the nucleus . Hyperglycemic RASM cells also display a relative increase in OGTase 's p78 subunit and an overall increase protein and activity for OGTase . Biochemical analyses show that hyperglycemia qualitatively and quantitatively alters the glycosylation or expression of many O-GlcNAc-modified proteins in the nucleus . These results suggest that the abnormal O-GlcNAc modification of intracellular proteins may be involved in glucose toxicity to vascular tissues .</text>\n<annotation>\n<infon key=\"type\">Disease</infon>\n<location offset='141' length='13' />\n<text>Hyperglycemia</text>\n<infon key=\"MEDIC\">MESH:D006943</infon>\n</annotation>\n<annotation>\n<infon key=\"type\">Disease</infon>\n<location offset='164' length='46' />\n<text>vascular disease specific to diabetes mellitus</text>\n<infon key=\"MEDIC\">MESH:D003925</infon>\n</annotation>\n<annotation>\n<infon key=\"type\">Disease</infon>\n<location offset='327' length='8' />\n<text>cataract</text>\n<infon key=\"MEDIC\">MESH:D002386</infon>\n</annotation>\n<annotation>\n<infon key=\"type\">Disease</infon>\n<location offset='338' length='13' />\n<text>renal failure</text>\n<infon key=\"MEDIC\">MESH:D051437</infon>\n</annotation>\n<annotation>\n<infon key=\"type\">Disease</infon>\n<location offset='358' length='15' />\n<text>atherosclerosis</text>\n<infon key=\"MEDIC\">MESH:D050197</infon>\n</annotation>\n<annotation>\n<infon key=\"type\">Disease</infon>\n<location offset='1492' length='13' />\n<text>Hyperglycemic</text>\n<infon key=\"MEDIC\">MESH:D006944</infon>\n</annotation>\n<annotation>\n<infon key=\"type\">Disease</infon>\n<location offset='1664' length='13' />\n<text>hyperglycemia</text>\n<infon key=\"MEDIC\">MESH:D006943</infon>\n</annotation>\n</passage>\n</document>\n</collection>\n",
      "request_count": 1,
      "document": 1815
    },
    "model": "document.pubtator",
    "pk": 9749
  },
  {
    "fields": {
      "kind": "GNormPlus",
      "created": "2015-05-28T19:40:51Z",
      "validate_cache": false,
      "updated": "2015-06-19T08:20:50Z",
      "session_id": "",
      "content": "<collection>\n<source>PubTator</source>\n<date>2015/5/29</date>\n<key>PubTator.key</key>\n<document>\n<id>11339805</id>\n<passage>\n<infon key=\"type\">title</infon>\n<offset>0</offset>\n<text>Hyperglycemia and the O-GlcNAc transferase in rat aortic smooth muscle cells : elevated expression and altered patterns of O-GlcNAcylation .</text>\n<annotation>\n<infon key=\"type\">Species</infon>\n<location offset='46' length='3' />\n<text>rat</text>\n<infon key=\"NCBI Taxonomy\">10116</infon>\n</annotation>\n</passage>\n<passage>\n<infon key=\"type\">abstract</infon>\n<offset>141</offset>\n<text>Hyperglycemia leads to vascular disease specific to diabetes mellitus . This pathology , which results from abnormal proliferation of smooth muscle cells in arterial walls , may lead to cataract , renal failure , and atherosclerosis . The hexosamine biosynthetic pathway is exquisitely responsive to glucose concentration and plays an important role in glucose-induced insulin resistance . UDP-GlcNAc : polypeptide O-N-acetylglucosaminyltransferase ( O-GlcNAc transferase ; OGTase ) catalyzes the O-linked attachment of single GlcNAc moieties to serine and threonine residues on many cytosolic or nuclear proteins . Polyclonal antibody against OGTase was used to examine the expression of OGTase in rat aorta and aortic smooth muscle ( RASM ) cells . OGTase enzymatic activity and expression at the mRNA and protein levels were determined in RASM cells cultured at normal ( 5 mM ) and at high ( 20 mM ) glucose concentrations . OGTase mRNA and protein are expressed in both endothelial cells and smooth muscle cells in the aorta of normal rats . In both cell types , the nucleus is intensely stained , while the cytoplasm stains diffusely . Immunoelectron microscopy shows that OGTase is localized to euchromatin and around the myofilaments of smooth muscle cells . In RASM cells grown in 5 mM glucose , OGTase is also located mainly in the nucleus . Hyperglycemic RASM cells also display a relative increase in OGTase 's p78 subunit and an overall increase protein and activity for OGTase . Biochemical analyses show that hyperglycemia qualitatively and quantitatively alters the glycosylation or expression of many O-GlcNAc-modified proteins in the nucleus . These results suggest that the abnormal O-GlcNAc modification of intracellular proteins may be involved in glucose toxicity to vascular tissues .</text>\n<annotation>\n<infon key=\"type\">Species</infon>\n<location offset='840' length='3' />\n<text>rat</text>\n<infon key=\"NCBI Taxonomy\">10116</infon>\n</annotation>\n<annotation>\n<infon key=\"type\">Species</infon>\n<location offset='1180' length='4' />\n<text>rats</text>\n<infon key=\"NCBI Taxonomy\">10116</infon>\n</annotation>\n</passage>\n</document>\n</collection>\n",
      "request_count": 1,
      "document": 1815
    },
    "model": "document.pubtator",
    "pk": 9750
  },
  {
    "fields": {
      "kind": "tmChem",
      "created": "2015-06-23T18:12:30Z",
      "validate_cache": false,
      "updated": "2015-06-23T18:12:31Z",
      "session_id": "4818-5586-5879-5957",
      "content": null,
      "request_count": 0,
      "document": 1816
    },
    "model": "document.pubtator",
    "pk": 9751
  },
  {
    "fields": {
      "kind": "DNorm",
      "created": "2015-06-23T18:12:31Z",
      "validate_cache": false,
      "updated": "2015-06-23T18:12:32Z",
      "session_id": "5015-8987-7146-2883",
      "content": null,
      "request_count": 0,
      "document": 1816
    },
    "model": "document.pubtator",
    "pk": 9752
  },
  {
    "fields": {
      "kind": "GNormPlus",
      "created": "2015-06-23T18:12:32Z",
      "validate_cache": false,
      "updated": "2015-06-23T18:12:32Z",
      "session_id": "7549-1980-9451-1329",
      "content": null,
      "request_count": 0,
      "document": 1816
    },
    "model": "document.pubtator",
    "pk": 9753
  },
  {
    "fields": {
      "kind": "tmChem",
      "created": "2015-06-23T18:12:42Z",
      "validate_cache": false,
      "updated": "2015-06-23T18:12:43Z",
      "session_id": "8815-6390-2517-1271",
      "content": null,
      "request_count": 0,
      "document": 1817
    },
    "model": "document.pubtator",
    "pk": 9754
  },
  {
    "fields": {
      "kind": "DNorm",
      "created": "2015-06-23T18:12:43Z",
      "validate_cache": false,
      "updated": "2015-06-23T18:12:44Z",
      "session_id": "6014-7589-6025-5041",
      "content": null,
      "request_count": 0,
      "document": 1817
    },
    "model": "document.pubtator",
    "pk": 9755
  },
  {
    "fields": {
      "kind": "GNormPlus",
      "created": "2015-06-23T18:12:44Z",
      "validate_cache": false,
      "updated": "2015-06-23T18:12:44Z",
      "session_id": "3563-9241-5447-4186",
      "content": null,
      "request_count": 0,
      "document": 1817
    },
    "model": "document.pubtator",
    "pk": 9756
  },
  {
    "fields": {
      "kind": "t",
      "created": "2015-05-28T19:40:50Z",
      "text": "Hyperglycemia and the O-GlcNAc transferase in rat aortic smooth muscle cells : elevated expression and altered patterns of O-GlcNAcylation .",
      "updated": "2015-05-28T19:40:50Z",
      "source": "images/figure.jpg",
      "document": 1815
    },
    "model": "document.section",
    "pk": 3629
  },
  {
    "fields": {
      "kind": "a",
      "created": "2015-05-28T19:40:50Z",
      "text": "Hyperglycemia leads to vascular disease specific to diabetes mellitus . This pathology , which results from abnormal proliferation of smooth muscle cells in arterial walls , may lead to cataract , renal failure , and atherosclerosis . The hexosamine biosynthetic pathway is exquisitely responsive to glucose concentration and plays an important role in glucose-induced insulin resistance . UDP-GlcNAc : polypeptide O-N-acetylglucosaminyltransferase ( O-GlcNAc transferase ; OGTase ) catalyzes the O-linked attachment of single GlcNAc moieties to serine and threonine residues on many cytosolic or nuclear proteins . Polyclonal antibody against OGTase was used to examine the expression of OGTase in rat aorta and aortic smooth muscle ( RASM ) cells . OGTase enzymatic activity and expression at the mRNA and protein levels were determined in RASM cells cultured at normal ( 5 mM ) and at high ( 20 mM ) glucose concentrations . OGTase mRNA and protein are expressed in both endothelial cells and smooth muscle cells in the aorta of normal rats . In both cell types , the nucleus is intensely stained , while the cytoplasm stains diffusely . Immunoelectron microscopy shows that OGTase is localized to euchromatin and around the myofilaments of smooth muscle cells . In RASM cells grown in 5 mM glucose , OGTase is also located mainly in the nucleus . Hyperglycemic RASM cells also display a relative increase in OGTase 's p78 subunit and an overall increase protein and activity for OGTase . Biochemical analyses show that hyperglycemia qualitatively and quantitatively alters the glycosylation or expression of many O-GlcNAc-modified proteins in the nucleus . These results suggest that the abnormal O-GlcNAc modification of intracellular proteins may be involved in glucose toxicity to vascular tissues .",
      "updated": "2015-05-28T19:40:50Z",
      "source": "images/figure.jpg",
      "document": 1815
    },
    "model": "document.section",
    "pk": 3630
  },
  {
    "fields": {
      "kind": "t",
      "created": "2015-06-23T18:12:30Z",
      "text": "The lectin Helix pomatia agglutinin recognizes O-GlcNAc containing glycoproteins in human breast cancer .",
      "updated": "2015-06-23T18:12:30Z",
      "source": "images/figure.jpg",
      "document": 1816
    },
    "model": "document.section",
    "pk": 3631
  },
  {
    "fields": {
      "kind": "a",
      "created": "2015-06-23T18:12:30Z",
      "text": "There has been considerable interest in understanding the epitopes that bind the lectin Helix pomatia agglutinin ( HPA ) in breast cancer as the lectin has been shown to identify glycosylation changes associated with the development of metastatic disease . HPA has previously been shown to recognize aberrant O-linked alpha-N-acetylgalactosamine ( GalNAcalpha ) / mucin glycosylation in cancer , including exposed Tn epitopes . However , recent glycan-array analysis reported that diverse epitopes are also recognized by the lectin , e.g . consortium for functional glycomics ( CFG ) data : GalNAcalpha1,3Gal ; beta-GalNAc ; GlcNAcbeta1,4Gal . The intriguing observations from the CFG array led to this study , in which HPA-binding epitopes were localized and characterized in an in vitro model of breast cancer metastasis . HMT3522 ( benign disease ) , BT474 ( primary cancer ) and T47D / MCF7 ( metastatic cancer ) cells were assessed in confocal microscopy-based co-localization studies and a glycoproteomic analysis based on 2-dimensional electrophoresis ( 2DE ) , western blotting and mass spectrometry was adopted . HPA binding correlated with levels of integrin alpha6 , transcription factors heterogeneous nuclear ribonuclear protein ( HnRNP ) H1 , HnRNP D-like , HnRNP A2 / B1 as well as heat shock protein 27 ( Hsp27 ) , glial fibrillary acidic protein and enolase 1 ( ENO1 ) . These glycoproteins were non-detectable in the non-metastatic breast cancer cell lines . The recognition of HnRNPs , Hsp27 and ENO1 by HPA correlated with O-GlcNAcylation of these proteins . Integrin alpha6 was the most abundant HPA glycoprotein in the breast cancer cells with a metastatic phenotype ; this concurred with previous findings in colorectal cancer . This is the first report in which HPA has been shown to bind O-GlcNAcylated transcription factors . This class of proteins represents a new means by which HPA differentiates cancer cells with an aggressive metastatic phenotype .",
      "updated": "2015-06-23T18:12:30Z",
      "source": "images/figure.jpg",
      "document": 1816
    },
    "model": "document.section",
    "pk": 3632
  },
  {
    "fields": {
      "kind": "t",
      "created": "2015-06-23T18:12:42Z",
      "text": "The effect of glycosylation on plasma N-terminal proBNP-76 levels in patients with heart or renal failure .",
      "updated": "2015-06-23T18:12:42Z",
      "source": "images/figure.jpg",
      "document": 1817
    },
    "model": "document.section",
    "pk": 3633
  },
  {
    "fields": {
      "kind": "a",
      "created": "2015-06-23T18:12:42Z",
      "text": "OBJECTIVE : Pro-brain natriuretic peptide ( proBNP ) -108 and N-terminal proBNP-76 ( NT-BNP ) contain seven sites for O-linked oligosaccharide attachment . Currently , levels of glycosylated NT-BNP are probably underestimated because it is not recognised by one antibody in the sandwich assay system . The pathophysiological significance of cardiac and plasma levels of non-glycosylated ( nonglyNT-BNP ) and glycosylated NT-BNP ( glyNT-BNP ) in heart failure ( HF ) and chronic renal failure ( CRF ) was investigated . METHODS : Plasma samples from 186 patients with HF and 76 patients with CRF on haemodialysis were studied , together with 11 atrial tissue samples . To measure nonglyNT-BNP and glyNT-BNP , samples were incubated with or without deglycosylating enzymes and NT-BNP was measured using Roche Elecsys proBNP I . The percentage glyNT-BNP was calculated as glyNT-BNP / ( glyNT-BNP + nonglyNT-BNP ) . RESULTS : In HF , plasma BNP , nonglyNT-BNP and glyNT-BNP levels all increased with increasing disease severity ( New York Heart Association class ; p < 0.0001 ) , though the molar ratio remained constant ( molar ratio , BNP : nonglyNT-BNP : glyNT-BNP = 1:2.4:9.6 ) . Before haemodialysis for CRF , plasma BNP and nonglyNT-BNP were somewhat elevated , and glyNT-BNP was markedly increased ( molar ratio , BNP : nonglyNT-BNP : glyNT-BNP = 1:8.5:82 ) . After haemodialysis , plasma BNP , nonglyNT-BNP , atrial natriuretic protein and cGMP all declined ( p < 0.0001 ) , but glyNT-BNP was unchanged . Notably , the percentage of glyNT-BNP was elevated before haemodialysis , and was further increased after haemodialysis ( p < 0.0001 ) . Atrial tissue levels of BNP , nonglyNT-BNP and glyNT-BNP were similar . CONCLUSION : THE findings suggest that most endogenous plasma NT-BNP is glycosylated and therefore undetectable with the current assay system , and that the relative glycosylation level is increased by haemodialysis .",
      "updated": "2015-06-23T18:12:42Z",
      "source": "images/figure.jpg",
      "document": 1817
    },
    "model": "document.section",
    "pk": 3634
  }
]